<svg width="100" height="87" viewBox="0 0 100 87" fill="none" xmlns="http://www.w3.org/2000/svg">
<path d="M52.3104 15.5892H18.1006V5.84608C18.1006 2.61726 20.7179 0 23.9465 0H46.4643C49.693 0 52.3104 2.61726 52.3104 5.84608V15.5892Z" fill="url(#paint0_linear)"/>
<path d="M43.5202 15.5892H9.3102V5.84608C9.3102 2.61726 11.9276 0 15.1563 0H37.6741C40.9027 0 43.5202 2.61726 43.5202 5.84608V15.5892Z" fill="url(#paint1_linear)"/>
<path d="M34.2098 11.0965V5.84608C34.2098 2.61726 31.5926 0 28.3639 0H5.84609C2.61727 0 1.52588e-05 2.61726 1.52588e-05 5.84608V68.9686C1.52588e-05 73.5682 3.72884 77.2971 8.32845 77.2971H91.6716C96.2712 77.2971 100 73.5682 100 68.9686V21.969C100 17.3694 96.2712 13.6406 91.6716 13.6406H36.7539C35.3488 13.6406 34.2098 12.5016 34.2098 11.0965Z" fill="url(#paint2_linear)"/>
<path d="M12.8896 26.7955C12.9576 26.7955 13.0256 26.8097 13.0936 26.838C13.1616 26.8607 13.2267 26.9032 13.2891 26.9655L14.4281 28.164C13.9294 28.8157 13.3032 29.3087 12.5496 29.643C11.8016 29.9717 10.9147 30.136 9.88908 30.136C8.94842 30.136 8.10408 29.9773 7.35608 29.66C6.61375 29.337 5.98192 28.895 5.46058 28.334C4.94492 27.7673 4.54825 27.0987 4.27058 26.328C3.99292 25.5517 3.85408 24.7102 3.85408 23.8035C3.85408 22.8798 4.00425 22.0327 4.30458 21.262C4.60492 20.4857 5.02708 19.817 5.57108 19.256C6.11508 18.695 6.76675 18.2587 7.52608 17.947C8.28542 17.6353 9.12125 17.4795 10.0336 17.4795C10.4982 17.4795 10.9346 17.522 11.3426 17.607C11.7562 17.6863 12.1416 17.7997 12.4986 17.947C12.8556 18.0887 13.1842 18.2615 13.4846 18.4655C13.7849 18.6695 14.0512 18.8905 14.2836 19.1285L13.3146 20.429C13.2522 20.5083 13.1786 20.582 13.0936 20.65C13.0086 20.7123 12.8896 20.7435 12.7366 20.7435C12.6346 20.7435 12.5382 20.7208 12.4476 20.6755C12.3569 20.6302 12.2606 20.5763 12.1586 20.514C12.0566 20.446 11.9432 20.3752 11.8186 20.3015C11.6996 20.2222 11.5551 20.1513 11.3851 20.089C11.2207 20.021 11.0252 19.9643 10.7986 19.919C10.5776 19.8737 10.3169 19.851 10.0166 19.851C9.54058 19.851 9.10425 19.9388 8.70758 20.1145C8.31658 20.2902 7.97658 20.548 7.68758 20.888C7.40425 21.2223 7.18325 21.636 7.02458 22.129C6.87158 22.6163 6.79508 23.1745 6.79508 23.8035C6.79508 24.4382 6.88008 25.002 7.05008 25.495C7.22575 25.988 7.46092 26.4045 7.75558 26.7445C8.05592 27.0788 8.40442 27.3338 8.80108 27.5095C9.19775 27.6852 9.62275 27.773 10.0761 27.773C10.3367 27.773 10.5747 27.7617 10.7901 27.739C11.0054 27.7107 11.2066 27.6682 11.3936 27.6115C11.5806 27.5492 11.7562 27.4698 11.9206 27.3735C12.0849 27.2715 12.2521 27.144 12.4221 26.991C12.4901 26.9343 12.5637 26.889 12.6431 26.855C12.7224 26.8153 12.8046 26.7955 12.8896 26.7955ZM20.0512 23.438C20.4422 23.438 20.7737 23.3898 21.0457 23.2935C21.3234 23.1915 21.5501 23.0527 21.7257 22.877C21.9014 22.7013 22.0289 22.4973 22.1082 22.265C22.1876 22.027 22.2272 21.772 22.2272 21.5C22.2272 20.956 22.0487 20.531 21.6917 20.225C21.3404 19.919 20.7936 19.766 20.0512 19.766H18.8952V23.438H20.0512ZM26.1542 30H23.5532C23.0716 30 22.7259 29.8187 22.5162 29.456L20.4592 25.8605C20.3629 25.7075 20.2552 25.597 20.1362 25.529C20.0172 25.4553 19.8472 25.4185 19.6262 25.4185H18.8952V30H16.0222V17.6155H20.0512C20.9466 17.6155 21.7087 17.709 22.3377 17.896C22.9724 18.0773 23.4881 18.3323 23.8847 18.661C24.2871 18.9897 24.5789 19.3778 24.7602 19.8255C24.9416 20.2732 25.0322 20.7605 25.0322 21.2875C25.0322 21.6898 24.9784 22.0695 24.8707 22.4265C24.7631 22.7835 24.6044 23.115 24.3947 23.421C24.1851 23.7213 23.9244 23.9905 23.6127 24.2285C23.3067 24.4665 22.9526 24.662 22.5502 24.815C22.7372 24.9113 22.9129 25.0332 23.0772 25.1805C23.2416 25.3222 23.3889 25.4922 23.5192 25.6905L26.1542 30ZM41.4581 17.6155V30H38.9251V22.877C38.9251 22.7127 38.9279 22.5342 38.9336 22.3415C38.9449 22.1488 38.9619 21.9533 38.9846 21.755L35.6951 28.1215C35.5931 28.3198 35.4542 28.47 35.2786 28.572C35.1086 28.674 34.9131 28.725 34.6921 28.725H34.3011C34.0801 28.725 33.8817 28.674 33.7061 28.572C33.5361 28.47 33.4001 28.3198 33.2981 28.1215L30.0086 21.738C30.0256 21.942 30.0397 22.1432 30.0511 22.3415C30.0624 22.5342 30.0681 22.7127 30.0681 22.877V30H27.5351V17.6155H29.7281C29.8527 17.6155 29.9604 17.6183 30.0511 17.624C30.1474 17.6297 30.2324 17.6467 30.3061 17.675C30.3797 17.7033 30.4449 17.7487 30.5016 17.811C30.5639 17.8677 30.6234 17.9498 30.6801 18.0575L33.8676 24.339C33.9809 24.5543 34.0886 24.7782 34.1906 25.0105C34.2982 25.2428 34.4002 25.4808 34.4966 25.7245C34.5929 25.4752 34.6921 25.2315 34.7941 24.9935C34.9017 24.7555 35.0151 24.5288 35.1341 24.3135L38.3131 18.0575C38.3697 17.9498 38.4264 17.8677 38.4831 17.811C38.5454 17.7487 38.6134 17.7033 38.6871 17.675C38.7607 17.6467 38.8429 17.6297 38.9336 17.624C39.0299 17.6183 39.1404 17.6155 39.2651 17.6155H41.4581Z" fill="#FFA003"/>
<path d="M75.9445 25.098H73.9388C72.7884 25.098 71.8559 24.1654 71.8559 23.015V21.0093C71.8559 19.8589 72.7884 18.9264 73.9388 18.9264H75.9445C77.0949 18.9264 78.0275 19.8589 78.0275 21.0093V23.015C78.0275 24.1654 77.0949 25.098 75.9445 25.098Z" fill="url(#paint3_linear)"/>
<path d="M83.8133 25.098H81.8077C80.6573 25.098 79.7247 24.1654 79.7247 23.015V21.0093C79.7247 19.8589 80.6573 18.9264 81.8077 18.9264H83.8133C84.9637 18.9264 85.8963 19.8589 85.8963 21.0093V23.015C85.8963 24.1654 84.9637 25.098 83.8133 25.098Z" fill="url(#paint4_linear)"/>
<path d="M91.6822 25.098H89.6765C88.5261 25.098 87.5935 24.1654 87.5935 23.015V21.0093C87.5935 19.8589 88.5261 18.9264 89.6765 18.9264H91.6822C92.8326 18.9264 93.7651 19.8589 93.7651 21.0093V23.015C93.7651 24.1654 92.8326 25.098 91.6822 25.098Z" fill="url(#paint5_linear)"/>
<path d="M91 63.7832L62.9256 35.1503C62.2358 34.175 61.1127 34 59.8435 34H46.5921C44.4941 34 43.2449 35.2741 43.2449 37.4138V52.4956H37.4389C33.6627 52.4956 31.8147 56.2745 33.8211 59.5372L39.1889 69H84.7382C87.8306 69.0002 90.4096 66.7594 91 63.7832Z" fill="url(#paint6_linear)"/>
<path d="M68.0814 52.0226H63.619V37.6742C63.619 35.5745 61.9167 33.8722 59.817 33.8722H46.5543C44.4546 33.8722 42.7524 35.5745 42.7524 37.6742V52.0226H37.3934C33.614 52.0226 31.3124 56.1829 33.3206 59.3846L48.6646 83.8492C50.5489 86.8534 54.9259 86.8534 56.8102 83.8492L72.1542 59.3846C74.1624 56.1827 71.8608 52.0226 68.0814 52.0226Z" fill="url(#paint7_linear)"/>
<defs>
<linearGradient id="paint0_linear" x1="35.2055" y1="3.24784" x2="35.2055" y2="15.5969" gradientUnits="userSpaceOnUse">
<stop stop-color="#FF9100"/>
<stop offset="1" stop-color="#E63950"/>
</linearGradient>
<linearGradient id="paint1_linear" x1="26.4153" y1="3.24784" x2="26.4153" y2="15.5969" gradientUnits="userSpaceOnUse">
<stop stop-color="#FDBF00"/>
<stop offset="1" stop-color="#FF9100"/>
</linearGradient>
<linearGradient id="paint2_linear" x1="11.3951" y1="6.86373" x2="69.8206" y2="65.2894" gradientUnits="userSpaceOnUse">
<stop stop-color="#FFDA2D"/>
<stop offset="1" stop-color="#FDBF00"/>
</linearGradient>
<linearGradient id="paint3_linear" x1="74.2561" y1="21.4897" x2="77.0757" y2="23.6382" gradientUnits="userSpaceOnUse">
<stop stop-color="#76E2F8"/>
<stop offset="1" stop-color="#48B2E3"/>
</linearGradient>
<linearGradient id="paint4_linear" x1="82.1249" y1="21.4897" x2="84.9445" y2="23.6382" gradientUnits="userSpaceOnUse">
<stop stop-color="#76E2F8"/>
<stop offset="1" stop-color="#48B2E3"/>
</linearGradient>
<linearGradient id="paint5_linear" x1="89.9935" y1="21.4897" x2="92.8133" y2="23.6382" gradientUnits="userSpaceOnUse">
<stop stop-color="#76E2F8"/>
<stop offset="1" stop-color="#48B2E3"/>
</linearGradient>
<linearGradient id="paint6_linear" x1="79.8196" y1="70.9296" x2="50.33" y2="52.2464" gradientUnits="userSpaceOnUse">
<stop stop-color="#FF9100" stop-opacity="0"/>
<stop offset="1" stop-color="#FF9100"/>
</linearGradient>
<linearGradient id="paint7_linear" x1="45.8556" y1="49.7764" x2="83.4266" y2="87.3475" gradientUnits="userSpaceOnUse">
<stop stop-color="#B9DD39"/>
<stop offset="1" stop-color="#0B799D"/>
</linearGradient>
</defs>
</svg>
