<svg width="12" height="14" viewBox="0 0 12 14" fill="none" xmlns="http://www.w3.org/2000/svg">
<path d="M9.83733 0H2.16267C0.970172 0 0 0.986468 0 2.19899V9.64173C0 10.8543 0.970172 11.8407 2.16267 11.8407H5.33832L9.16082 14V11.8407H9.83733C11.0298 11.8407 12 10.8543 12 9.64173V2.19899C12 0.986434 11.0298 0 9.83733 0ZM2.83223 3.16317H9.16082V4.17808H2.83223V3.16317ZM6.86393 8.64373H2.83223V7.62881H6.86393V8.64373ZM9.16777 6.41365H2.83223V5.39873H9.16777V6.41365Z" fill="#93BFFF"/>
</svg>
