<svg width="17" height="17" viewBox="0 0 17 17" fill="none" xmlns="http://www.w3.org/2000/svg">
<path d="M7.50016 6.66663H5.8335V9.16663H3.3335V10.8333H5.8335V13.3333H7.50016V10.8333H10.0002V9.16663H7.50016V6.66663Z" fill="black"/>
<path d="M1.66667 16.6667H11.6667C12.5858 16.6667 13.3333 15.9192 13.3333 15V5.00004C13.3333 4.08087 12.5858 3.33337 11.6667 3.33337H1.66667C0.7475 3.33337 0 4.08087 0 5.00004V15C0 15.9192 0.7475 16.6667 1.66667 16.6667ZM1.66667 5.00004H11.6667L11.6683 15H1.66667V5.00004Z" fill="black"/>
<path d="M15 0H5V1.66667H15V11.6667H16.6667V1.66667C16.6667 0.7475 15.9192 0 15 0Z" fill="black"/>
</svg>
