<svg width="17" height="17" viewBox="0 0 17 17" fill="none" xmlns="http://www.w3.org/2000/svg">
<path d="M16.9332 15.3948L15.7662 11.9984C16.3275 10.8637 16.6244 9.59895 16.6264 8.32638C16.6298 6.1349 15.7819 4.06275 14.2388 2.49168C12.6954 0.920338 10.6388 0.0358718 8.44794 0.00110809C7.30007 -0.0173197 6.18624 0.194185 5.13569 0.629047C4.12243 1.04847 3.21376 1.65605 2.43494 2.4349C1.65609 3.21372 1.04851 4.12239 0.629087 5.13565C0.194159 6.1862 -0.0171129 7.3006 0.00108245 8.4479C0.0357798 10.6388 0.920279 12.6954 2.49159 14.2387C4.05957 15.7788 6.1264 16.6264 8.31317 16.6264C8.31742 16.6264 8.32197 16.6264 8.32625 16.6264C9.59886 16.6244 10.8636 16.3276 11.9983 15.7662L15.3948 16.9333C15.5254 16.9782 15.6593 17 15.7917 17C16.1063 17 16.4123 16.8764 16.6443 16.6444C16.9741 16.3147 17.0848 15.8359 16.9332 15.3948ZM8.23135 13.0523C7.94883 13.0523 7.73961 12.8214 7.7274 12.5483C7.71521 12.2762 7.96775 12.0444 8.23135 12.0444C8.51388 12.0444 8.72309 12.2753 8.73531 12.5483C8.74753 12.8205 8.49495 13.0523 8.23135 13.0523ZM8.73531 9.20297V10.8053C8.73531 11.0836 8.50966 11.3093 8.23135 11.3093C7.95304 11.3093 7.7274 11.0836 7.7274 10.8053V8.74988C7.7274 8.47157 7.95304 8.24592 8.23135 8.24592C9.05811 8.24592 9.73077 7.57326 9.73077 6.7465C9.73077 5.91974 9.05811 5.24708 8.23135 5.24708C7.40459 5.24708 6.73193 5.91974 6.73193 6.7465C6.73193 7.02481 6.50628 7.25046 6.22797 7.25046C5.94966 7.25046 5.72402 7.02481 5.72402 6.7465C5.72402 5.36399 6.84881 4.23916 8.23135 4.23916C9.61387 4.23916 10.7387 5.36395 10.7387 6.7465C10.7387 7.95649 9.87717 8.96906 8.73531 9.20297Z" fill="#0091FF"/>
</svg>
