<svg width="14" height="14" viewBox="0 0 14 14" fill="none" xmlns="http://www.w3.org/2000/svg">
<path d="M14 1.71861H3.675L3.37953 0H0.763406C0.341123 0 0 0.341757 0 0.763723V1.52713H2.09303L3.43976 9.3606C3.46957 9.53306 3.63537 9.67287 3.81069 9.67287H12.8546C13.2769 9.67287 13.6186 9.33143 13.6186 8.90851V8.14574H4.78016L4.59407 7.06341H11.582C12.4253 7.06341 13.2217 6.38877 13.3609 5.55752L14 1.71861Z" fill="#93BFFF"/>
<path d="M6.1726 13.2528C6.90185 13.2528 7.49302 12.6616 7.49302 11.9324C7.49302 11.2031 6.90185 10.6119 6.1726 10.6119C5.44335 10.6119 4.85217 11.2031 4.85217 11.9324C4.85217 12.6616 5.44335 13.2528 6.1726 13.2528Z" fill="#93BFFF"/>
<path d="M9.43542 11.9319C9.43542 12.6608 10.0261 13.2521 10.7549 13.2521C11.4844 13.2521 12.0763 12.6608 12.0763 11.9319C12.0763 11.2031 11.4844 10.6112 10.7549 10.6112C10.0261 10.6112 9.43542 11.2034 9.43542 11.9319Z" fill="#93BFFF"/>
</svg>
