<svg width="22" height="22" viewBox="0 0 22 22" fill="none" xmlns="http://www.w3.org/2000/svg">
<path d="M10.9983 0C4.93451 0 0 4.93452 0 10.9983C0 17.0655 4.93451 21.9966 10.9983 21.9966C17.0621 21.9966 21.9966 17.0621 21.9966 10.9983C22 4.93452 17.0655 0 10.9983 0Z" fill="#E6EAF0"/>
<path d="M15.8096 6.74475L9.70822 12.5553L6.21779 9.06486L4.54443 10.7074L8.85614 15.0191C9.09226 15.2552 9.38313 15.3716 9.67742 15.3716C9.97171 15.3716 10.2626 15.2552 10.4987 15.0499L17.4522 8.4489L15.8096 6.74475Z" fill="white"/>
</svg>
